{
  "defaultSeverity": "error",
  "extends": ["tslint:all"],
  "jsRules": {
    "no-unused-expression": true
  },
  "rules": {
    "quotemark": [true, "single"],
    "member-access": [false],
    "ordered-imports": [false],
    "max-line-length": [true, 150],
    "member-ordering": [false],
    "interface-name": [false],
    "arrow-parens": false,
    "object-literal-sort-keys": false,
    "no-any": true,
    "no-null-keyword": true,
    "no-implicit-dependencies": [true, "dev"],

    "newline-per-chained-call": false,
    "no-parameter-properties": false,
    "prefer-function-over-method": false,
    "typedef" : false,
    "no-use-before-declare": false,
    "completed-docs": false,
    "linebreak-style": false,
    "file-name-casing": [true, "kebab-case"]
  },
  "rulesDirectory": [],
  "linterOptions": {
    "exclude": [
      "test/app.e2e-spec.ts"
    ]
  }
}
